<svg width="16" height="16" viewBox="0 0 16 16" fill="none" xmlns="http://www.w3.org/2000/svg">
<path d="M9.9334 4H2.06667C1.47757 4 1 4.44772 1 5V11C1 11.5523 1.47757 12 2.06667 12H9.9334C10.5225 12 11.0001 11.5523 11.0001 11V5C11.0001 4.44772 10.5225 4 9.9334 4Z" fill="#59595A"/>
<path d="M9.54894 8.39617C9.27161 8.19602 9.27161 7.80392 9.54894 7.60377L14.1413 4.28953C14.492 4.03643 15 4.27081 15 4.68573V11.3142C15 11.7292 14.492 11.9635 14.1413 11.7104L9.54894 8.39617Z" fill="#59595A"/>
</svg>
